10000.0 243434.4815184815 0.15184815184815184
12003.567661352048 264671.4245754246 0.14685314685314685
14408.56366006564 248292.32367632366 0.11388611388611389
17295.416879649623 256645.87012987013 0.14585414585414586
20760.670674616456 269930.6253746254 0.13186813186813187
24920.211513780545 274486.9090909091 0.15184815184815184
29913.14450408691 282323.65234765236 0.14685314685314685
35906.445401860845 307469.4185814186 0.11388611388611389
43100.54468598798 287589.2187812188 0.14585414585414586
51736.030437938316 319195.996003996 0.13186813186813187
62101.694189156166 316181.05894105893 0.14885114885114886
74544.18880841279 357165.6023976024 0.14785214785214784
89479.6214122385 383217.55444555444 0.11788211788211789
107407.46899339704 413524.6273726274 0.7232767232767233
128927.28213968137 440082.27972027974 0.9110889110889111
154758.73545578876 435436.54545454547 0.926073926073926
185765.69522288427 504017.24275724276 0.9140859140859141
222985.10917659945 547409.5404595404 0.952047952047952
267661.684547528 619417.7022977023 0.938061938061938
321289.514081772 656822.5974025974 0.9470529470529471
385662.04211634723 787676.4935064935 0.952047952047952
462932.04169587774 839463.6643356644 0.9460539460539461
555683.6085104306 957976.3536463537 0.9560439560439561
667018.5793059216 1121418.7352647353 0.9400599400599401
800660.264807753 1303951.7462537463 0.962037962037962
961077.9662375912 1436218.849150849 0.9500499500499501
1153636.4395567547 1724061.6363636365 0.9470529470529471
1384775.305882078 2029037.4225774226 0.957042957042957
1662224.4079924966 2406448.1658341656 0.9500499500499501
1995262.3149688789 2708242.5974025973 0.961038961038961
2238721.138568338 3014392.5234765233 0.957042957042957
2511886.4315095823 3163569.116883117 0.9630369630369631
2818382.931264455 3546909.942057942 0.9590409590409591
3162277.6601683795 3949423.2547452548 0.9760239760239761
