10000.0 240256.8755622189 0.13893053473263367
12003.567661352048 254320.62368815593 0.1329335332333833
14408.56366006564 244215.2023988006 0.14942528735632185
17295.416879649623 251541.6071964018 0.13893053473263367
20760.670674616456 262921.43928035983 0.1329335332333833
24920.211513780545 264668.059970015 0.14942528735632185
29913.14450408691 272699.13643178414 0.13893053473263367
35906.445401860845 289544.49175412295 0.1329335332333833
43100.54468598798 281646.72863568214 0.14942528735632185
51736.030437938316 304774.54272863566 0.13893053473263367
62101.694189156166 306392.9235382309 0.1329335332333833
74544.18880841279 337736.9955022489 0.14942528735632185
89479.6214122385 359568.0539730135 0.13943028485757122
107407.46899339704 393285.0784607696 0.777111444277861
128927.28213968137 416742.5467266367 0.9020489755122438
154758.73545578876 420497.04147926037 0.927536231884058
185765.69522288427 472498.80859570217 0.927536231884058
222985.10917659945 519941.78010994504 0.9450274862568716
267661.684547528 588569.5542228885 0.9255372313843079
321289.514081772 625554.8095952024 0.9510244877561219
385662.04211634723 723347.6571714144 0.953023488255872
462932.04169587774 793131.7631184408 0.9535232383808095
555683.6085104306 900030.8295852074 0.9565217391304348
667018.5793059216 1040942.6376811594 0.9510244877561219
800660.264807753 1195721.075462269 0.9640179910044977
961077.9662375912 1346436.4677661168 0.9635182408795602
1153636.4395567547 1608220.911544228 0.9685157421289355
1384775.305882078 1865948.88055972 0.9690154922538731
1662224.4079924966 2192400.0329835084 0.9630184907546226
1995262.3149688789 2504883.9780109944 0.9665167416291854
2238721.138568338 2783496.694652674 0.9690154922538731
2511886.4315095823 3006050.6386806597 0.960519740129935
2818382.931264455 3352234.554722639 0.9645177411294353
3162277.6601683795 3708759.1414292855 0.9700149925037481
